{
    "/js/app.js": "/js/app.js",
    "/css/app.css": "/css/app.css",
    "/css/citytours-packed.css": "/css/citytours-packed.css",
    "/js/citytours-packed.js": "/js/citytours-packed.js",
    "/js/backend-dashlite-packed.js": "/js/backend-dashlite-packed.js",
    "/css/backend-dashlite-packed.css": "/css/backend-dashlite-packed.css",
    "/js/modules-asset-packed.js": "/js/modules-asset-packed.js",
    "/css/modules-asset-packed.css": "/css/modules-asset-packed.css",
    "/js/datatables-packed.js": "/js/datatables-packed.js",
    "/js/datatables-bs4-packed.js": "/js/datatables-bs4-packed.js",
    "/css/datatables-bs4-packed.css": "/css/datatables-bs4-packed.css"
}
